<?xml version="1.0" encoding="UTF-8" standalone="no"?>
<svg
   xmlns:dc="http://purl.org/dc/elements/1.1/"
   xmlns:cc="http://creativecommons.org/ns#"
   xmlns:rdf="http://www.w3.org/1999/02/22-rdf-syntax-ns#"
   xmlns:svg="http://www.w3.org/2000/svg"
   xmlns="http://www.w3.org/2000/svg"
   xmlns:sodipodi="http://sodipodi.sourceforge.net/DTD/sodipodi-0.dtd"
   xmlns:inkscape="http://www.inkscape.org/namespaces/inkscape"
   id="SvgjsSvg954935"
   width="4096"
   height="3491.217494319853"
   version="1.1"
   sodipodi:docname="baercode_non_transparent.svg"
   inkscape:version="0.92.5 (2060ec1f9f, 2020-04-08)">
  <metadata
     id="metadata28">
    <rdf:RDF>
      <cc:Work
         rdf:about="">
        <dc:format>image/svg+xml</dc:format>
        <dc:type
           rdf:resource="http://purl.org/dc/dcmitype/StillImage" />
      </cc:Work>
    </rdf:RDF>
  </metadata>
  <sodipodi:namedview
     pagecolor="#ffffff"
     bordercolor="#666666"
     borderopacity="1"
     objecttolerance="10"
     gridtolerance="10"
     guidetolerance="10"
     inkscape:pageopacity="0"
     inkscape:pageshadow="2"
     inkscape:window-width="1920"
     inkscape:window-height="1043"
     id="namedview26"
     showgrid="false"
     inkscape:zoom="0.21572854"
     inkscape:cx="2048.0386"
     inkscape:cy="1745.5855"
     inkscape:window-x="1920"
     inkscape:window-y="0"
     inkscape:window-maximized="1"
     inkscape:current-layer="layer1" />
  <defs
     id="SvgjsDefs954936" />
  <g
     inkscape:groupmode="layer"
     id="layer1"
     inkscape:label="Background"
     sodipodi:insensitive="true">
    <rect
       style="fill:#ffffff"
       id="rect31"
       width="4120.9199"
       height="3509.0398"
       x="0"
       y="-3.9157944" />
  </g>
  <g
     id="SvgjsG954937"
     transform="translate(327.9999999999998, 328) scale(34.4)"
     opacity="1">
    <defs
       id="SvgjsDefs279910" />
    <g
       id="SvgjsG279911"
       transform="scale(0.28929137664785004)"
       opacity="1">
      <g
         id="SvgjsG279912"
         class="FSFDsUUh0"
         transform="translate(91.30853701882913, -1.986560743296638) scale(3.973121486593304)"
         light-content="false"
         non-strokable="false"
         fill="#000000">
        <path
           d="M24.5 35.7h-22c-1.1 0-2-.9-2-2V2.5c0-1.1.9-2 2-2H35c1.1 0 2 .9 2 2v21.4c0 1.1-.9 2-2 2s-2-.9-2-2V4.4H4.4v27.3h20.1c1.1 0 2 .9 2 2s-.9 2-2 2z"
           id="path4" />
        <path
           d="M9.7 26.7c-1.1 0-2-.9-2-2V11.1c0-1.1.9-2 2-2s2 .9 2 2v13.6c0 1.1-.9 2-2 2zm8.4 0c-1.1 0-2-.9-2-2V11.1c0-1.1.9-2 2-2s2 .9 2 2v13.6c-.1 1.1-.9 2-2 2zm8.4-4.9c-1.1 0-2-.9-2-2v-8.7c0-1.1.9-2 2-2s2 .9 2 2v8.7c-.1 1.1-.9 2-2 2zm7.1 22.3c-2.8 0-5.5-1.1-7.5-3.1-4.1-4.2-4.1-10.9 0-15.1 2-2 4.6-3.1 7.5-3.1 2.8 0 5.5 1.1 7.5 3.1 4.1 4.2 4.1 10.9 0 15.1-2 2-4.6 3.1-7.5 3.1zm0-17.4c-1.8 0-3.4.7-4.7 2-2.6 2.6-2.6 6.9 0 9.6 1.2 1.3 2.9 2 4.7 2 1.8 0 3.4-.7 4.7-2 2.6-2.6 2.6-6.9 0-9.6-1.2-1.3-2.9-2-4.7-2z"
           id="path6" />
        <path
           d="M45.5 47.5c-.5 0-1-.2-1.4-.6L38.3 41c-.8-.8-.7-2 0-2.8.8-.8 2-.7 2.8 0l5.8 5.9c.8.8.7 2 0 2.8-.4.4-.9.6-1.4.6z"
           id="path8" />
      </g>
      <g
         id="SvgjsG279913"
         class="text"
         transform="translate(172.04, 283.7046778117673) scale(1)"
         light-content="false"
         fill="#050505">
        <path
           d="M-172.04 -55.89L-172.04 0L-142.37 0C-139.07 0 -136.07 -0.67 -133.38 -2C-130.68 -3.33 -128.54 -5.26 -126.94 -7.8C-125.34 -10.33 -124.54 -13.3 -124.54 -16.71C-124.54 -19.91 -125.18 -22.51 -126.46 -24.51C-127.74 -26.51 -129.74 -28.04 -132.46 -29.11C-130.48 -30.28 -128.96 -31.88 -127.9 -33.9C-126.83 -35.93 -126.3 -38.11 -126.3 -40.46C-126.3 -45.42 -127.86 -49.23 -130.98 -51.9C-134.1 -54.56 -138.35 -55.89 -143.73 -55.89ZM-146.85 -33.74L-157.88 -33.74L-157.88 -45.34L-147.09 -45.34C-144.9 -45.34 -143.28 -44.93 -142.21 -44.1C-141.15 -43.27 -140.61 -41.77 -140.61 -39.58C-140.61 -35.69 -142.69 -33.74 -146.85 -33.74ZM-145.97 -10.55L-157.88 -10.55L-157.88 -23.27L-146.29 -23.27C-143.78 -23.27 -141.92 -22.75 -140.69 -21.71C-139.47 -20.67 -138.85 -19 -138.85 -16.71C-138.85 -14.42 -139.44 -12.82 -140.61 -11.91C-141.79 -11.01 -143.57 -10.55 -145.97 -10.55Z M-111.43 -43.42C-110.2 -42.25 -108.73 -41.66 -107.03 -41.66C-105.32 -41.66 -103.88 -42.25 -102.71 -43.42C-101.54 -44.59 -100.95 -46.03 -100.95 -47.74C-100.95 -49.44 -101.55 -50.91 -102.75 -52.13C-103.95 -53.36 -105.38 -53.97 -107.03 -53.97C-108.73 -53.97 -110.2 -53.36 -111.43 -52.13C-112.65 -50.91 -113.27 -49.44 -113.27 -47.74C-113.27 -46.03 -112.65 -44.59 -111.43 -43.42ZM-92.56 -43.42C-91.33 -42.25 -89.86 -41.66 -88.16 -41.66C-86.51 -41.66 -85.08 -42.25 -83.88 -43.42C-82.68 -44.59 -82.08 -46.03 -82.08 -47.74C-82.08 -49.44 -82.68 -50.91 -83.88 -52.13C-85.08 -53.36 -86.51 -53.97 -88.16 -53.97C-89.86 -53.97 -91.33 -53.36 -92.56 -52.13C-93.78 -50.91 -94.39 -49.44 -94.39 -47.74C-94.39 -46.03 -93.78 -44.59 -92.56 -43.42ZM-116.1 -2.28C-113.15 0.04 -109.27 1.2 -104.47 1.2C-101.64 1.2 -99.14 0.8 -96.95 0C-94.77 -0.8 -92.96 -1.89 -91.52 -3.28L-91.52 0L-78.32 0L-78.32 -23.35C-78.32 -28.47 -80.15 -32.45 -83.8 -35.3C-87.45 -38.15 -92.85 -39.58 -99.99 -39.58C-102.98 -39.58 -105.86 -39.33 -108.63 -38.82C-111.4 -38.31 -113.64 -37.66 -115.34 -36.86L-115.34 -27.19C-111.45 -29 -107.16 -29.91 -102.47 -29.91C-95.75 -29.91 -92.4 -27.85 -92.4 -23.75L-92.4 -22.95C-93.89 -23.7 -95.67 -24.29 -97.75 -24.75C-99.83 -25.2 -101.91 -25.43 -103.99 -25.43C-109.32 -25.43 -113.41 -24.27 -116.26 -21.95C-119.12 -19.63 -120.54 -16.31 -120.54 -11.99C-120.54 -7.84 -119.06 -4.6 -116.1 -2.28ZM-95.67 -8.44C-97.11 -7.77 -98.66 -7.44 -100.31 -7.44C-102.18 -7.44 -103.6 -7.84 -104.59 -8.64C-105.58 -9.44 -106.07 -10.55 -106.07 -11.99C-106.07 -13.54 -105.56 -14.71 -104.55 -15.51C-103.54 -16.31 -102.1 -16.71 -100.23 -16.71C-97.3 -16.71 -94.69 -15.94 -92.4 -14.39L-92.4 -11.03C-93.14 -9.97 -94.23 -9.1 -95.67 -8.44Z M-71.53 -38.38L-71.53 0L-57.45 0L-57.45 -22.07C-56.44 -24.1 -54.59 -25.61 -51.9 -26.63C-49.2 -27.64 -46.1 -28.15 -42.58 -28.15L-42.58 -38.94C-45.88 -38.94 -48.9 -38.47 -51.62 -37.54C-54.33 -36.61 -56.44 -35.29 -57.93 -33.58L-57.93 -38.38Z M-25.75 -2.32C-21.14 0.03 -15.79 1.2 -9.72 1.2C-1.4 1.2 5.29 -0.53 10.36 -4L10.36 -17.35C7.74 -15.38 4.92 -13.94 1.88 -13.03C-1.16 -12.13 -4.6 -11.67 -8.44 -11.67C-13.87 -11.67 -18.1 -13.11 -21.11 -15.99C-24.12 -18.87 -25.63 -22.84 -25.63 -27.91C-25.63 -32.97 -24.14 -36.93 -21.15 -39.78C-18.16 -42.63 -13.93 -44.06 -8.44 -44.06C-4.6 -44.06 -1.2 -43.63 1.76 -42.78C4.72 -41.93 7.37 -40.57 9.72 -38.7L9.72 -52.13C7.05 -53.84 4.14 -55.09 1 -55.89C-2.15 -56.69 -5.72 -57.09 -9.72 -57.09C-15.79 -57.09 -21.14 -55.91 -25.75 -53.53C-30.36 -51.16 -33.92 -47.78 -36.42 -43.38C-38.93 -38.98 -40.18 -33.82 -40.18 -27.91C-40.18 -21.99 -38.93 -16.83 -36.42 -12.43C-33.92 -8.04 -30.36 -4.66 -25.75 -2.32Z M27.11 -2.48C31.66 -0.03 36.77 1.2 42.42 1.2C48.02 1.2 53.09 -0.03 57.65 -2.48C62.21 -4.93 65.79 -8.36 68.41 -12.75C71.02 -17.15 72.33 -22.2 72.33 -27.91C72.33 -33.61 71.02 -38.67 68.41 -43.1C65.79 -47.52 62.21 -50.96 57.65 -53.41C53.09 -55.87 48.02 -57.09 42.42 -57.09C36.77 -57.09 31.66 -55.87 27.11 -53.41C22.55 -50.96 18.95 -47.52 16.31 -43.1C13.67 -38.67 12.35 -33.61 12.35 -27.91C12.35 -22.2 13.67 -17.15 16.31 -12.75C18.95 -8.36 22.55 -4.93 27.11 -2.48ZM50.18 -13.99C47.83 -12.71 45.24 -12.07 42.42 -12.07C39.54 -12.07 36.92 -12.71 34.54 -13.99C32.17 -15.27 30.31 -17.11 28.95 -19.51C27.59 -21.91 26.91 -24.71 26.91 -27.91C26.91 -31.11 27.59 -33.89 28.95 -36.26C30.31 -38.63 32.16 -40.47 34.5 -41.78C36.85 -43.09 39.49 -43.74 42.42 -43.74C45.3 -43.74 47.91 -43.09 50.26 -41.78C52.6 -40.47 54.45 -38.63 55.81 -36.26C57.17 -33.89 57.85 -31.11 57.85 -27.91C57.85 -24.71 57.16 -21.91 55.77 -19.51C54.39 -17.11 52.52 -15.27 50.18 -13.99Z M77.92 -55.89L77.92 0L97.59 0C107.24 0 114.78 -2.39 120.22 -7.16C125.66 -11.93 128.38 -18.95 128.38 -28.23C128.38 -33.82 127.14 -38.71 124.66 -42.9C122.18 -47.08 118.65 -50.3 114.07 -52.53C109.48 -54.77 104.12 -55.89 97.99 -55.89ZM98.79 -11.91L92.08 -11.91L92.08 -43.98L99.27 -43.98C103.8 -43.98 107.36 -42.5 109.95 -39.54C112.53 -36.58 113.83 -32.81 113.83 -28.23C113.83 -23.22 112.53 -19.24 109.95 -16.31C107.36 -13.38 103.64 -11.91 98.79 -11.91Z M133.98 -55.89L133.98 0L173.64 0L173.64 -11.91L148.13 -11.91L148.13 -22.39L166.76 -22.39L166.76 -33.5L148.13 -33.5L148.13 -43.98L173.64 -43.98L173.64 -55.89Z"
           id="path11" />
      </g>
      <g
         id="SvgjsG279914"
         class="riG1ihD6Q-"
         transform="translate(177.95618217297962, 79.1216484039557) scale(0.926300421150338)"
         light-content="false"
         non-strokable="false"
         fill="#000000">
        <ellipse
           cx="33.915"
           cy="52.147"
           rx="3.319"
           ry="4.299"
           id="ellipse14" />
        <ellipse
           cx="66.786"
           cy="52.652"
           rx="3.319"
           ry="4.299"
           id="ellipse16" />
        <path
           d="M94.504 24.079c0-7.894-6.422-14.316-14.316-14.316-4.444 0-8.542 2.036-11.247 5.487a38.597 38.597 0 0 0-17.579-4.223 38.598 38.598 0 0 0-19.752 5.416 14.287 14.287 0 0 0-12.108-6.68c-7.894 0-14.316 6.422-14.316 14.316 0 6.109 3.81 11.404 9.359 13.436a38.663 38.663 0 0 0-2.026 12.355c0 21.418 17.425 38.844 38.843 38.844S90.205 71.289 90.205 49.87c0-4.795-.879-9.387-2.475-13.631 4.16-2.589 6.774-7.191 6.774-12.16zm-85.467 0c0-5.77 4.694-10.464 10.464-10.464 3.668 0 7.007 1.902 8.895 4.954a39.07 39.07 0 0 0-12.442 15.36 10.433 10.433 0 0 1-6.917-9.85zm42.325 60.783c-19.294 0-34.992-15.698-34.992-34.992 0-19.294 15.697-34.991 34.992-34.991S86.353 30.576 86.353 49.87c0 19.295-15.697 34.992-34.991 34.992zm20.961-67.668a10.405 10.405 0 0 1 7.865-3.579c5.77 0 10.464 4.694 10.464 10.464 0 3.44-1.722 6.631-4.487 8.569a39.108 39.108 0 0 0-13.842-15.454z"
           id="path18" />
        <path
           d="M58.391 71.759c-1.579.574-3.698 1.057-4.833.099-.687-.579-.962-1.61-1.048-2.599.035-.546.028-1.049.001-1.474 2.792-.376 4.92-2.245 4.92-4.508 0-2.534-2.66-4.588-5.942-4.588s-5.942 2.054-5.942 4.588c0 2.113 1.86 3.874 4.378 4.407l.005.066c-.028.426-.038.935-.003 1.488-.085.993-.357 2.036-1.043 2.618-1.134.96-3.256.478-4.837-.097a1.283 1.283 0 1 0-.877 2.413c1.465.533 2.776.799 3.927.799 1.385 0 2.538-.386 3.448-1.156.259-.22.477-.465.676-.72.198.256.416.501.676.72.91.771 2.063 1.156 3.448 1.156 1.151 0 2.462-.267 3.927-.799a1.284 1.284 0 1 0-.881-2.413z"
           id="path20" />
      </g>
    </g>
  </g>
</svg>
