{
    "bundleURL": "https://s3-de-central.profitbricks.com/baercode/bundle.cose",
    "keyURL": "https://s3-de-central.profitbricks.com/baercode/ba.crt ",
    "authorityCN": "authority.baercode.de"
}
